<?xml version="1.0" standalone="no"?>
<!DOCTYPE svg PUBLIC "-//W3C//DTD SVG 20010904//EN"
 "http://www.w3.org/TR/2001/REC-SVG-20010904/DTD/svg10.dtd">
<svg version="1.0" xmlns="http://www.w3.org/2000/svg"
 width="688.000000pt" height="688.000000pt" viewBox="0 0 688.000000 688.000000"
 preserveAspectRatio="xMidYMid meet">
<metadata>
Created by potrace 1.11, written by Peter Selinger 2001-2013
</metadata>
<g transform="translate(0.000000,688.000000) scale(0.100000,-0.100000)"
fill="#000000" stroke="none">
<path d="M1287 5638 c-7 -4 -13 -15 -13 -25 -3 -32 -16 -118 -19 -123 -2 -3
-6 -30 -10 -60 -3 -30 -9 -68 -11 -85 -3 -16 -16 -104 -30 -195 -13 -90 -27
-178 -30 -195 -3 -16 -7 -43 -10 -60 -7 -51 -13 -89 -18 -120 -3 -16 -8 -52
-12 -80 -3 -27 -8 -59 -10 -70 -2 -11 -6 -31 -8 -45 -3 -14 -8 -45 -11 -70 -3
-25 -7 -54 -9 -66 -2 -12 -7 -45 -11 -75 -3 -30 -8 -61 -10 -69 -3 -8 -7 -33
-10 -55 -2 -22 -6 -49 -9 -60 -8 -43 -19 -121 -21 -145 -1 -14 -4 -38 -8 -55
-3 -16 -9 -48 -12 -70 -3 -23 -7 -50 -9 -60 -2 -11 -7 -42 -10 -70 -6 -46 -16
-110 -31 -195 -3 -19 -6 -42 -7 -50 0 -8 -4 -35 -8 -60 -9 -47 -18 -109 -24
-157 -2 -15 -7 -44 -10 -63 -3 -19 -8 -51 -11 -70 -2 -19 -7 -46 -10 -60 -3
-14 -7 -45 -10 -70 -3 -25 -8 -58 -11 -75 -3 -16 -7 -43 -9 -60 -7 -53 -16
-109 -20 -135 -3 -14 -8 -41 -10 -60 -3 -19 -7 -48 -10 -65 -3 -16 -7 -48 -10
-70 -3 -22 -8 -56 -11 -75 -3 -19 -8 -44 -9 -55 -2 -11 -9 -55 -15 -98 -6 -43
-13 -88 -15 -100 -2 -12 -6 -40 -10 -62 -6 -46 -21 -144 -29 -195 -3 -19 -7
-44 -10 -55 -2 -11 -7 -47 -11 -80 -3 -32 -8 -62 -10 -65 -2 -3 -6 -30 -10
-60 -3 -30 -13 -98 -22 -150 -8 -52 -16 -104 -18 -115 -1 -11 -5 -40 -9 -65
-4 -25 -9 -61 -12 -80 -3 -19 -6 -44 -8 -56 l-3 -21 417 0 c304 -1 417 2 417
11 1 10 16 104 28 175 2 13 7 45 11 70 4 25 9 55 11 66 6 26 9 48 18 114 6 52
8 64 20 121 2 14 7 43 10 65 3 23 8 52 11 65 5 26 8 45 18 120 4 25 9 56 12
70 2 14 7 41 10 60 9 66 14 95 19 120 3 14 8 45 11 70 3 25 8 54 11 65 2 11 6
36 9 55 2 19 9 60 14 90 5 30 12 73 15 95 3 23 8 52 10 65 3 14 8 43 11 65 3
22 7 51 10 65 2 14 14 87 26 163 l22 137 699 -2 700 -3 44 -65 c24 -36 50 -73
58 -83 8 -9 15 -19 15 -22 0 -3 7 -13 15 -22 30 -37 165 -235 165 -243 0 -5 4
-10 8 -12 5 -1 28 -32 52 -68 24 -36 46 -67 49 -70 14 -12 71 -99 71 -108 0
-6 4 -12 8 -14 5 -1 30 -34 57 -73 101 -145 112 -162 155 -225 25 -36 50 -70
55 -77 6 -6 44 -61 85 -122 41 -61 101 -147 133 -191 31 -44 57 -84 57 -90 0
-5 4 -10 8 -10 5 0 18 -17 30 -38 11 -20 30 -48 41 -62 11 -14 67 -93 125
-176 l105 -151 480 0 c265 0 481 3 481 7 0 3 -21 38 -47 77 -27 38 -52 77 -58
85 -18 28 -218 322 -252 370 -18 26 -33 50 -33 54 0 3 -6 11 -12 18 -7 8 -19
22 -25 32 -7 11 -32 48 -55 84 -24 36 -45 67 -48 70 -3 3 -23 32 -45 65 -22
33 -42 62 -45 65 -3 3 -9 13 -15 22 -5 10 -76 116 -157 235 -81 120 -170 252
-198 293 -27 41 -53 80 -58 85 -4 6 -68 100 -142 210 -74 110 -174 259 -223
330 -48 72 -100 148 -114 169 l-26 40 55 50 c30 28 99 92 153 141 54 50 110
101 125 115 59 55 151 139 239 220 51 47 108 99 125 115 18 17 72 66 120 110
49 44 103 94 121 110 18 17 76 71 130 120 54 50 108 99 120 110 42 39 142 131
239 220 55 50 114 104 131 120 18 17 71 66 120 110 48 44 104 96 125 115 21
19 74 69 119 110 46 41 102 93 126 115 23 22 77 71 119 110 42 38 76 72 76 75
0 3 -216 5 -479 5 l-480 -1 -112 -104 c-157 -147 -172 -161 -277 -259 -51 -47
-115 -106 -141 -131 -46 -44 -277 -260 -332 -310 -37 -34 -247 -230 -337 -315
-100 -93 -141 -132 -263 -245 -56 -52 -122 -115 -148 -138 -25 -24 -83 -78
-129 -120 -46 -43 -106 -98 -133 -124 l-49 -47 -707 2 c-622 2 -708 4 -707 17
0 16 14 110 20 145 4 20 12 73 19 122 2 15 6 46 10 68 8 53 35 223 40 255 2
14 6 44 10 68 6 40 9 53 19 112 2 14 7 45 10 70 3 25 8 56 11 70 2 14 6 41 9
60 2 19 7 46 10 60 3 14 8 44 11 68 10 83 17 127 21 152 3 14 7 35 9 47 4 31
15 101 21 138 3 17 7 46 10 65 2 19 9 60 14 90 5 30 12 80 16 110 3 30 7 59 8
64 1 11 -810 15 -827 4z"/>
</g>
</svg>
