<?xml version="1.0" encoding="utf-8"?>
<!-- Generator: Adobe Illustrator 16.0.0, SVG Export Plug-In . SVG Version: 6.00 Build 0)  -->
<!DOCTYPE svg PUBLIC "-//W3C//DTD SVG 1.1//EN" "http://www.w3.org/Graphics/SVG/1.1/DTD/svg11.dtd">
<svg version="1.1" id="Layer_1" xmlns="http://www.w3.org/2000/svg" xmlns:xlink="http://www.w3.org/1999/xlink" x="0px" y="0px"
	 width="816px" height="559px" viewBox="17.647 146 816 559" enable-background="new 17.647 146 816 559" xml:space="preserve">
<g>
	<path fill="#FFFFFF" d="M44.57,350.583h64.614l29.322,18.553v-68.667c0-9.063-7.357-16.42-16.42-16.42H44.57
		c-9.063,0-16.421,7.357-16.421,16.42v33.694C28.149,343.226,35.506,350.583,44.57,350.583z"/>
	<path fill="#FFFFFF" d="M80.288,613.627c0,0-8.423,10.023-19.192,11.729c-10.769,1.705-23.671,3.518-25.483,9.275l0.427,2.56
		h74.424c0,0,3.946-0.854,5.651-5.759C117.927,626.635,83.381,608.509,80.288,613.627z"/>
	<path fill="#FFFFFF" d="M254.834,320.728c0,0-3.625,8.957-3.52,12.049c0.107,3.092,0.213,27.082,0.213,27.082
		s-1.706,14.501-11.407,14.715c0,0-2.24,0.426-2.347,1.599c-0.106,1.173-1.065,5.545,2.56,7.677
		c3.625,2.026,6.504,11.089,6.504,11.089l7.356,51.606l1.493,54.06l7.783,36.253l-77.409,0.745l-16.207-33.8l15.141-112.169
		c0,0,4.265-0.533,7.997-4.905c3.625-4.372,6.931-2.879,7.57-13.968c0.533-11.196,1.066-18.233,1.066-18.233
		s0.426-2.559-4.052-1.279c-4.479,1.279-12.368-4.052-12.476-11.622c-0.106-7.571,7.997-12.476,7.997-12.476l11.729-19.405
		l19.086-10.876C223.699,298.87,256.007,309.319,254.834,320.728z"/>
	<path fill="#070A44" d="M369.882,345.039h129.549c21.752,0,39.558-17.807,39.558-39.558v-58.644
		c0-21.752-17.806-39.558-39.558-39.558H369.882c-21.751,0-39.559,17.806-39.559,39.558v58.644
		C330.218,327.126,348.131,345.039,369.882,345.039z"/>
	<path fill="#FFFFFF" d="M513.506,432.364c0,11.516,9.275,20.792,20.792,20.792c11.515,0,20.792-9.276,20.792-20.792
		c0-11.515-9.277-20.791-20.792-20.791C522.889,411.573,513.506,420.849,513.506,432.364z"/>
	<path fill="#FFFFFF" d="M517.558,480.239c17.272-2.772,23.563,1.493,31.881,3.944c8.21,2.452,17.273,6.291,30.281,8.317
		s21.857-3.625,44.996-17.807c23.137-14.074,26.442-16.74,37.745-16.74c11.408,0,27.509,10.663,41.477,18.553
		c13.542,7.677,34.547,19.512,35.933,20.365v32.948c0,21.11-17.272,38.277-38.278,38.277h-187.66
		c-21.111,0-38.278-17.272-38.278-38.277v-41.265C491.327,485.25,509.134,481.625,517.558,480.239z"/>
	<path fill="#404040" d="M514.892,546.56c0,0,42.117,2.56,68.56,13.328c26.443,10.77,49.901,15.888,69.094,32.734
		c19.192,16.953,21.857,31.881,23.458,41.37c1.599,9.49-1.388,25.803-22.072,30.388c-20.578,4.479-31.987,5.118-54.06,3.839
		c-22.07-1.279-44.781-2.879-44.781-2.879s-2.772-19.512-0.533-31.454l-46.382,3.306l-59.391,2.025c0,0-9.597,26.443-17.167,26.443
		c-7.569-0.107-46.487-0.854-46.487-0.854l-22.179-63.229L358.9,588.25c0,0,21.751-14.714,60.456-26.869
		c38.705-12.156,58.004-13.755,58.004-13.755L514.892,546.56z"/>
	<path fill="#FFFFFF" d="M425.221,657.023c0,0,15.887,2.666,23.244-7.357l2.132,3.625l8.637,16.101c0,0,3.305,4.371,8.637,2.879
		c5.438-1.6,2.452-10.449,2.452-10.449l-2.771-8.53l8.315,10.45c0,0,5.332,7.569,10.45,4.69c5.118-2.771-0.747-11.408-0.747-11.408
		s8.104,4.798,11.196,2.559s-0.213-10.449-2.772-13.648c-2.559-3.092-12.475-16.526-18.02-19.405
		c-5.544-2.878-23.352-1.172-26.869-0.854c-3.519,0.32-21.752,2.346-21.752,2.346S422.128,652.118,425.221,657.023z"/>
	<path fill="#FFFFFF" d="M503.162,639.217c0,0,2.879-14.288,6.824-17.7c3.945-3.518,7.677-5.224,7.677-5.224l-6.823,20.045
		l14.607-8.85l6.717-14.501c0,0,8.104,0.106,13.223,0.747c5.118,0.639,13.647,4.69,13.647,4.69s-4.372,13.328-4.798,18.767
		c-0.427,5.545-0.427,15.566-0.427,15.566s-11.942,3.839-16.207,4.798c-4.265,0.96-16.1,3.412-20.045,1.28
		c0,0-7.145-0.746-9.811-2.452c-3.411-2.133-4.265-4.691-4.265-4.691s-1.599,0.427-3.092-2.879
		C498.577,645.188,503.162,639.217,503.162,639.217z"/>
	<path fill="#FFFFFF" d="M451.237,457.208c4.798-2.452,10.236-4.692,17.061-3.412c6.717,1.279,12.901,6.078,12.901,6.078
		s5.544-4.479,15.888-3.306c10.235,1.173,14.286,7.677,15.14,11.836c0.853,3.944,2.24,13.86-0.106,21.431
		c4.266,2.666,5.544,7.571,5.544,9.17c-0.105,2.239,0,10.982-10.661,12.369l0.64,2.132l10.021,33.054
		c0,0-6.609,29.642-24.203,31.667c-14.074,1.601-15.674-16.952-15.674-16.952l-6.505-19.086c0,0-8.956,0.96-12.048-7.357
		s-9.596-34.227-9.596-34.227s-10.663-5.758-12.156-18.127C435.883,470.323,446.546,459.66,451.237,457.208z"/>
	<path d="M275.199,502.417l28.148-18.02l67.494-0.214c0,0,6.609-1.386,10.662-6.184c4.052-4.798,3.839-12.369,3.839-12.369v-34.973
		c0,0-1.92-5.757-5.438-8.316c-3.519-2.559-7.251-4.692-11.729-4.692c-4.479,0-78.796,0-78.796,0s-6.611,2.026-10.77,6.931
		c-4.157,4.905-3.411,15.887-3.411,15.887V502.417L275.199,502.417z"/>
	<path fill="#FFFFFF" d="M411.466,238.627c3.731-6.398,9.809-6.398,13.541,0l28.575,48.941c3.732,6.397,0.746,11.622-6.61,11.622
		h-57.364c-7.356,0-10.343-5.225-6.611-11.516L411.466,238.627z"/>
	<path fill="#FFFFFF" d="M523.954,629.941l10.344-25.271l-9.384-3.838l-14.607,35.506L523.954,629.941z"/>
	<path fill="#FFFFFF" d="M525.555,600.085l1.706-3.945l8.956,3.412l-1.813,4.159L525.555,600.085z"/>
	<path fill="#FFFFFF" d="M377.451,681.547l6.824-8.637c0,0,1.493-4.585,0.747-9.916c-0.747-5.331-39.985-115.795-39.985-115.795
		s-5.117-10.875-17.06-13.114H161.43l-4.798,1.066l-8.637,5.544l-1.066,2.133l172.2-1.919l11.089,4.265l7.037,7.57l40.304,115.475
		l0.213,6.397L377.451,681.547z"/>
	<path fill="#CCCCCC" d="M500.604,529.286c0,0-7.037,14.928-26.336,21.752l-2.346-8.85
		C471.922,542.188,497.192,538.563,500.604,529.286z"/>
	<path fill="#1A1A1A" d="M486.53,513.613c0,0-3.839,2.878-3.731,6.504c0.106,3.625,2.238,6.504,2.238,6.504
		s-3.198,3.092-7.677,2.665c-4.585-0.319-4.69-4.904-3.838-6.077c0.854-1.173,4.904-0.427,6.077-2.026
		c1.173-1.599,0.853-2.771,1.173-4.904C480.985,514.252,482.265,510.947,486.53,513.613z"/>
	<path fill="#CCCCCC" d="M464.885,482.478c0,0-9.383,4.905-19.939,2.134c-4.372-1.173-6.61,1.706-6.61,1.706
		s4.904,12.367,10.343,13.86l0.96-0.64l-2.347-10.876C447.291,488.662,461.899,488.236,464.885,482.478z"/>
	<path fill="#CCCCCC" d="M513.079,482.478c0,0-18.34,8.743-30.602,1.813c0,0,4.265,5.651,7.784,7.037l-0.213,5.011
		c0,0,4.157,0.32,4.371,2.24c0,0,1.279-8.744,7.464-9.703c6.184-0.96,10.235,0.959,10.235,0.959L513.079,482.478z"/>
	<path fill="#070A44" d="M245.344,389.501v2.026v42.437l-1.386-1.919c0,0,2.559,11.835,3.839,36.252c1.172,24.417,0,32.308,0,32.308
		s13.646,8.316,10.875,32.308l1.706,1.065h67.6c0,0,15.674,4.053,18.233,15.567c0,0,13.435-9.383,12.049-28.042
		c-1.387-18.659-17.7-44.355-24.098-60.03C327.658,446.012,305.694,391.74,245.344,389.501z"/>
	<path fill="#070A44" d="M188.513,391.527l23.457,48.834l3.306-3.945c0,0,14.182,38.918,16.848,52.14c0,0-40.944-2.453-40.944,4.052
		v41.051l-28.576,0.319l-5.971,0.533l-10.662,8.53c0,0-13.222,5.758-13.222,17.273s23.671,76.77,23.671,76.77h-15.674l-1.6-30.494
		l-17.593,26.549c0,0-16.421-2.771-26.337-8.636c-9.916-5.865-17.913-11.623-17.913-11.623s13.648-50.859,16.207-60.456
		c2.56-9.596,23.991-96.389,25.164-101.187c1.065-4.905,6.717-24.524,13.754-32.734
		C139.572,410.506,159.511,392.273,188.513,391.527z"/>
	<path fill="#CCCCCC" d="M217.942,373.721c0,0,10.022,9.596,17.807,10.236l2.025-3.732L237.667,375L217.942,373.721z"/>
	<path fill="#FFFFFF" d="M253.554,618.425c4.798,8.423,4.265,17.807-1.279,21.005c-5.545,3.199-13.968-1.065-18.766-9.383
		c-4.798-8.423-4.265-17.806,1.279-21.005C240.333,605.737,248.756,610.002,253.554,618.425z"/>
	<path fill="#FFFFFF" d="M246.304,308.573c10.662-5.651,6.824-21.858,0.639-28.256c13.01,6.184,10.771,22.711,7.678,27.936
		c0,0,13.114,4.265-2.452,20.898l-0.96-12.155c0,0-21.218,4.798-33.586-9.276C217.515,307.72,232.443,315.93,246.304,308.573z"/>
	<path fill="#FFFFFF" d="M201.948,330.751c9.703-2.026,14.928-23.351,14.928-23.351l0.533,1.386
		c-0.533,4.478-2.985,21.752-11.408,25.057c0,0-1.601-1.813-4.479-2.986C201.734,330.857,201.841,330.751,201.948,330.751z"/>
	<path fill="#FFFFFF" d="M226.045,416.904l8.85,9.809l-1.493,14.715l14.396,32.308l-1.387-17.594l-7.891-15.566l2.026-14.183
		l-11.302-14.819L226.045,416.904z"/>
	<path d="M35.293,637.937c0.533,0,0.959-0.426,0.959-0.959c0.106-4.691,5.758-6.823,5.758-6.823
		c2.879-1.173,6.078-1.919,10.663-2.239c17.806-1.493,27.296-12.156,27.722-12.582c0.32-0.427,0.32-0.96-0.106-1.386
		c-0.426-0.32-0.959-0.32-1.386,0.105c-0.106,0.107-9.383,10.45-26.337,11.942c-4.798,0.427-8.104,1.173-11.195,2.453
		c-0.213,0.105-6.824,2.559-7.037,8.636C34.333,637.511,34.76,637.937,35.293,637.937z"/>
	<path d="M45.316,637.831c0.213,0,0.427-0.107,0.533-0.213c0.427-0.32,0.533-0.96,0.213-1.387c0,0-1.706-2.239-0.959-4.158
		c0.532-1.279,2.025-2.347,4.478-2.879c8.957-2.133,18.233-5.225,18.34-5.225c0.533-0.214,0.746-0.747,0.64-1.173
		c-0.213-0.534-0.746-0.853-1.173-0.64c-0.106,0-9.276,3.092-18.232,5.225c-3.199,0.746-5.225,2.132-5.865,4.158
		c-1.065,2.879,1.174,5.864,1.28,5.971C44.782,637.724,45.103,637.831,45.316,637.831z"/>
	<path d="M83.274,638.151c12.155-2.56,11.516-9.384,11.516-9.703c-0.106-0.533-0.426-0.96-1.066-0.854
		c-0.532,0.106-0.853,0.533-0.853,1.066c0,0.213,0.427,5.438-9.703,7.464c-0.533,0.106-0.853,0.639-0.746,1.173
		C82.421,637.831,82.74,638.151,83.274,638.151z"/>
	<path d="M111.956,637.937c0.213,0,0.532-0.105,0.64-0.318c2.452-2.453,3.305-4.905,3.305-5.012
		c0.214-0.533-0.105-1.066-0.639-1.174c-0.534-0.213-1.067,0.107-1.28,0.641c0,0-0.746,2.133-2.879,4.265
		c-0.426,0.427-0.426,0.96,0,1.386C111.423,637.831,111.743,637.937,111.956,637.937z"/>
	<path d="M613.199,669.925c25.164,0,49.901-3.199,58.537-15.461c5.012-7.144,6.291-17.593,3.412-28.682
		c-4.691-18.767-19.832-35.719-41.37-46.702c-12.262-6.185-25.59-11.835-39.878-16.846c-12.048-4.266-26.229-8.957-40.944-11.942
		c-12.9-2.666-23.243-3.519-35.293-4.479c-0.532,0-0.959,0.319-1.065,0.853c0,0.533,0.32,0.96,0.853,1.067
		c12.05,0.853,22.285,1.812,35.08,4.478c14.501,2.985,28.683,7.677,40.624,11.942c14.182,5.011,27.509,10.662,39.664,16.739
		c21.112,10.662,35.826,27.189,40.411,45.423c2.666,10.556,1.493,20.472-3.199,27.083c-14.074,20.151-78.369,14.287-105.771,11.835
		c-3.625-0.319-6.718-0.64-9.169-0.746c-0.533,0-0.96,0.319-1.067,0.853c0,0.533,0.32,0.96,0.853,1.066
		c2.453,0.214,5.546,0.427,9.171,0.747C576.841,668.219,595.073,669.925,613.199,669.925z"/>
	<path d="M359.646,589.956c0.213,0,0.427-0.107,0.533-0.213c3.626-2.772,6.931-4.905,11.303-7.464
		c20.685-11.622,44.249-19.192,64.721-25.058c9.276-2.665,23.244-6.396,37.319-7.464c0.533,0,0.959-0.533,0.854-1.065
		c0-0.533-0.428-0.854-0.961-0.854c-14.287,1.173-28.361,4.905-37.744,7.571c-20.473,5.864-44.25,13.434-65.148,25.27
		c-4.585,2.56-7.89,4.798-11.622,7.57c-0.427,0.32-0.533,0.96-0.213,1.386C359.113,589.743,359.433,589.956,359.646,589.956z"/>
	<path d="M416.477,666.513c5.225,0,10.13-0.106,14.501-0.213c0.533,0,0.96-0.427,0.96-0.96s-0.427-0.96-0.96-0.96
		c-12.795,0.533-29.855,0.214-45.635-0.639c-0.533,0-0.96,0.426-1.067,0.959c0,0.533,0.427,0.96,0.96,1.066
		C395.578,666.3,406.561,666.513,416.477,666.513z"/>
	<path d="M510.307,637.298c0.427,0,0.747-0.214,0.853-0.64l14.288-35.08l8.104,3.306l-9.702,23.777
		c-0.214,0.533,0,1.065,0.533,1.279c0.532,0.214,1.065,0,1.278-0.533l10.023-24.737c0.107-0.213,0.107-0.533,0-0.746
		s-0.32-0.427-0.533-0.533l-9.81-4.052c-0.533-0.213-1.066,0-1.279,0.533l-14.608,36.039c-0.213,0.534,0,1.066,0.533,1.28
		C510.094,637.298,510.2,637.298,510.307,637.298z"/>
	<path d="M534.83,605.31c0.427,0,0.746-0.213,0.854-0.64l1.919-4.798c0.213-0.533,0-1.066-0.533-1.279l-9.809-4.052
		c-0.214-0.107-0.534-0.107-0.747,0s-0.426,0.32-0.533,0.533l-1.919,4.798c-0.213,0.533,0,1.066,0.533,1.28
		c0.533,0.213,1.065,0,1.278-0.533l1.601-3.946l8.103,3.307l-1.599,3.944c-0.213,0.533,0,1.066,0.533,1.279
		C534.617,605.203,534.724,605.31,534.83,605.31z"/>
	<path d="M503.696,667.792c0.214,0,0.534-0.106,0.641-0.213l9.276-8.85c0.426-0.32,0.426-0.959,0-1.387
		c-0.427-0.426-0.96-0.426-1.387,0l-7.783,7.357l-0.533-11.942c0-0.533-0.427-0.959-0.96-0.959s-0.96,0.426-0.96,0.959l0.534,14.075
		c0,0.426,0.213,0.746,0.639,0.853C503.483,667.686,503.59,667.792,503.696,667.792z"/>
	<path d="M465.311,673.977c0.96,0,2.026-0.214,2.986-0.747c1.386-0.639,2.559-1.599,3.198-2.771
		c0.746-1.173,1.066-2.666,0.959-4.265c-0.105-1.813-0.745-3.412-1.386-5.012c-0.64-1.706-1.493-3.519-2.452-5.65
		c-2.238-4.799-4.904-9.598-7.89-14.501c-0.32-0.428-0.854-0.641-1.28-0.32c-0.426,0.32-0.64,0.854-0.319,1.279
		c2.879,4.798,5.545,9.703,7.783,14.395c1.066,2.132,1.813,3.838,2.452,5.544c0.533,1.493,1.066,2.879,1.173,4.372
		c0.107,0.854,0,2.026-0.64,3.092c-0.533,0.746-1.279,1.493-2.345,2.026c-2.133,1.066-4.479,0.426-6.398-1.6
		c-1.065-1.173-1.919-2.665-2.666-4.052c-0.213-0.427-0.533-0.853-0.746-1.387c-1.065-1.812-2.132-3.73-3.092-5.65l-0.533-1.066
		c-0.319-0.64-0.747-1.386-1.065-2.132c-1.493-2.986-3.094-5.972-5.226-8.638c-0.319-0.427-0.96-0.532-1.386-0.213
		c-0.427,0.32-0.533,0.959-0.213,1.387c1.919,2.559,3.518,5.438,5.011,8.316c0.426,0.746,0.746,1.387,1.066,2.132l0.533,1.066
		c1.066,1.92,2.025,3.839,3.092,5.651c0.214,0.427,0.534,0.853,0.747,1.279c0.853,1.493,1.706,3.092,2.879,4.372
		C461.26,673.017,463.285,673.977,465.311,673.977z"/>
	<path d="M483.33,670.458c0.746,0,1.493-0.107,1.92-0.32c2.452-0.853,4.158-2.984,4.371-4.69c1.066-8.104-15.674-26.87-16.42-27.724
		c-0.319-0.426-0.96-0.426-1.386-0.105c-0.427,0.318-0.427,0.959-0.106,1.386c4.69,5.224,16.739,20.152,15.887,26.123
		c-0.107,0.853-1.279,2.559-3.092,3.092c-1.919,0.641-3.945-0.106-5.972-2.133c-7.784-7.996-17.806-24.843-17.913-25.056
		c-0.319-0.428-0.853-0.641-1.279-0.32s-0.64,0.854-0.319,1.279c0.426,0.747,10.236,17.167,18.126,25.377
		C479.599,669.818,481.625,670.458,483.33,670.458z"/>
	<path d="M493.674,661.608c1.706,0,3.197-0.641,4.585-1.919c4.798-4.372-5.332-15.888-6.505-17.167
		c-3.625-5.225-12.901-17.594-19.726-18.553c-10.13-1.493-43.396,2.985-44.783,3.198c-0.532,0.107-0.853,0.533-0.853,1.067
		c0.107,0.532,0.533,0.853,1.067,0.853c0.318,0,34.333-4.692,44.249-3.199c4.265,0.641,11.195,7.25,18.553,17.807
		c3.944,4.478,9.275,12.154,6.717,14.501c-1.173,1.065-2.452,1.493-3.732,1.386c-3.838-0.32-7.25-4.904-7.25-5.011
		c-0.319-0.428-0.96-0.533-1.386-0.213c-0.427,0.319-0.534,0.959-0.214,1.386c0.107,0.213,3.945,5.331,8.637,5.758
		C493.246,661.608,493.46,661.608,493.674,661.608z"/>
	<path d="M429.911,658.943c12.476,0,18.873-7.358,19.193-7.678c0.319-0.427,0.319-1.066-0.107-1.387
		c-0.427-0.319-1.065-0.32-1.386,0.107c-0.106,0.106-7.677,8.743-22.178,6.717c-0.533-0.106-1.067,0.32-1.067,0.853
		c-0.105,0.534,0.32,1.067,0.854,1.067C426.82,658.836,428.419,658.943,429.911,658.943z"/>
	<path d="M504.443,689.651c0.213,0,0.426-0.107,0.64-0.215l34.866-31.561c0.427-0.32,0.427-0.959,0.107-1.386
		c-0.32-0.426-0.96-0.426-1.386-0.106l-34.548,31.241l-84.554-7.464l34.973-19.406c0.428-0.213,0.641-0.853,0.428-1.279
		c-0.32-0.427-0.854-0.64-1.28-0.427l-37.638,21.005c-0.428,0.214-0.533,0.641-0.533,1.067c0.105,0.426,0.426,0.746,0.853,0.746
		L504.443,689.651z"/>
	<path d="M395.899,614.693c17.273,0,38.704-1.279,40.091-1.387c0.533,0,0.959-0.532,0.854-1.065c0-0.533-0.428-0.854-0.96-0.854
		c-0.533,0-51.073,3.092-59.923,0c-0.533-0.213-1.067,0.106-1.28,0.641c-0.213,0.532,0.106,1.065,0.64,1.278
		C378.519,614.267,386.621,614.693,395.899,614.693z"/>
	<path d="M506.895,653.185c4.905,0,13.861-2.238,27.936-13.222c0.427-0.32,0.533-0.959,0.214-1.386
		c-0.32-0.426-0.959-0.533-1.387-0.213c-16.739,13.008-25.696,13.221-28.789,12.688c-1.812-0.319-3.197-1.065-3.944-2.238
		c-2.239-3.625,2.771-7.783,3.625-8.317c1.92-0.746,22.071-8.849,27.615-15.993c0.32-0.427,0.215-1.067-0.213-1.386
		c-0.426-0.32-1.065-0.214-1.386,0.213c-5.438,6.93-26.656,15.354-26.87,15.46c-0.533,0.32-7.783,5.758-4.371,11.089
		c1.066,1.601,2.879,2.773,5.225,3.093C505.296,653.078,506.041,653.185,506.895,653.185z"/>
	<path d="M514.892,658.943c11.729,0,26.336-8.744,27.083-9.17c0.426-0.32,0.64-0.854,0.32-1.387c-0.32-0.427-0.854-0.64-1.387-0.319
		c-0.214,0.105-19.3,11.622-30.602,8.315c-2.879-0.853-5.011-2.559-6.397-5.331c-0.214-0.533-0.853-0.639-1.279-0.426
		s-0.641,0.854-0.427,1.279c1.6,3.199,4.158,5.331,7.57,6.291C511.372,658.729,513.078,658.943,514.892,658.943z"/>
	<path d="M502.843,641.669c0.427,0,0.853-0.32,0.96-0.853c0-0.106,1.813-10.876,4.904-15.888c2.985-5.011,10.343-8.21,10.343-8.316
		c0.534-0.213,0.747-0.746,0.534-1.279c-0.215-0.533-0.747-0.747-1.28-0.533c-0.32,0.106-7.997,3.519-11.302,9.063
		c-3.199,5.331-5.013,16.1-5.118,16.633c-0.107,0.534,0.319,1.067,0.746,1.067C502.737,641.669,502.843,641.669,502.843,641.669z"/>
	<path d="M559.568,618.425c0.533,0,0.96-0.427,0.96-0.853c0-0.533-0.32-0.96-0.853-1.066c0,0-2.666-0.214-7.892-2.346
		c-9.809-4.052-20.258-1.919-20.685-1.813c-0.533,0.107-0.854,0.641-0.746,1.174c0.106,0.532,0.64,0.853,1.173,0.746
		c0.106,0,10.342-2.133,19.512,1.706C556.581,618.212,559.355,618.425,559.568,618.425
		C559.461,618.425,559.461,618.425,559.568,618.425z"/>
	<path d="M524.062,660.968c7.677,0,16.74-3.305,20.472-4.69c0.641-0.213,1.066-0.428,1.387-0.533
		c2.666-0.854,8.316-2.026,8.316-2.026c0.533-0.106,0.854-0.64,0.746-1.173s-0.64-0.853-1.173-0.746
		c-0.213,0-5.864,1.173-8.636,2.026c-0.32,0.105-0.747,0.318-1.388,0.533c-5.117,1.919-20.577,7.569-27.296,2.771
		c-0.426-0.32-1.065-0.213-1.386,0.213c-0.32,0.428-0.213,1.066,0.214,1.387C517.771,660.329,520.863,660.968,524.062,660.968z"/>
	<path d="M633.353,619.705c0.533,0,0.959-0.427,0.959-0.96s-0.426-0.96-0.959-1.066c-51.82-3.092-70.053-5.118-70.266-5.118
		c-0.641-0.106-1.067,0.32-1.067,0.854c-0.106,0.533,0.32,0.959,0.853,1.065C563.087,614.693,581.426,616.612,633.353,619.705z"/>
	<path d="M555.09,666.3c0.64-0.106,1.065-0.533,0.959-1.065c-4.371-35.293,7.57-50.861,7.677-50.968
		c0.32-0.427,0.32-1.066-0.106-1.386c-0.427-0.32-1.066-0.32-1.386,0.106c-0.534,0.64-12.688,16.207-8.104,52.46
		C554.237,665.979,554.662,666.3,555.09,666.3z"/>
	<path d="M431.298,666.3c2.559,0,5.117-2.133,7.356-6.185l2.026-3.519c0.213-0.427,0.106-1.066-0.32-1.279
		c-0.426-0.32-1.065-0.106-1.279,0.319l-2.025,3.52c-1.919,3.518-4.052,5.438-5.971,5.224c-3.84-0.426-7.037-10.342-5.438-23.884
		c0.746-6.717,2.346-13.861,4.265-18.979c1.919-5.331,4.053-8.316,5.864-8.21c1.493,0.214,4.052,6.078,5.545,12.795
		c0.106,0.533,0.641,0.854,1.173,0.746c0.533-0.105,0.854-0.639,0.746-1.173c-0.533-2.345-3.305-13.86-7.25-14.287
		c-2.879-0.319-5.545,2.879-7.891,9.489c-1.919,5.332-3.519,12.369-4.371,19.406c-1.6,13.968,1.493,25.377,7.144,26.123
		C430.978,666.3,431.191,666.3,431.298,666.3z"/>
	<path d="M491.861,644.015h8.53c0.533,0,0.96-0.427,0.96-0.96c0-0.532-0.427-0.959-0.96-0.959h-8.53c-0.533,0-0.96,0.427-0.96,0.959
		C490.901,643.588,491.327,644.015,491.861,644.015z"/>
	<path d="M514.466,668.646c0.532,0,0.959-0.427,0.959-0.96c0-0.532-0.427-0.96-0.959-1.065l-16.527-0.96
		c-0.533,0-0.96,0.426-1.067,0.96c0,0.533,0.428,0.959,0.96,1.065L514.466,668.646z"/>
	<path d="M459.234,671.311c0.533,0,0.959-0.426,0.959-0.96c0-0.532-0.426-0.959-0.959-0.959l-8.317-0.106
		c-0.532-0.106-0.96,0.427-0.96,0.96s0.428,0.959,0.96,0.959L459.234,671.311z"/>
	<path d="M501.137,679.414c0.534,0,0.96-0.426,0.96-0.853c0-0.533-0.32-0.96-0.854-1.066l-16.953-1.386
		c-0.532,0-0.96,0.319-1.066,0.853c0,0.533,0.32,0.96,0.853,1.066L501.137,679.414C501.137,679.414,501.031,679.414,501.137,679.414
		z"/>
	<path d="M138.293,370.095c0.213,0,0.319,0,0.426-0.106c0.32-0.213,0.533-0.533,0.533-0.854v-33.374c0-0.106,0-0.213-0.106-0.32
		c0-0.426,0.106-0.959,0.106-1.492v-32.308c0-10.023-8.104-18.126-18.126-18.126H45.316c-10.022,0-18.126,8.103-18.126,18.126v4.158
		c0,0.534,0.426,0.96,0.959,0.96s0.96-0.426,0.96-0.96v-4.158c0-8.956,7.25-16.207,16.207-16.207h75.811
		c8.957,0,16.207,7.251,16.207,16.207v32.308c0,0.533,0,1.172-0.107,1.705c0,0.214,0,0.32,0.107,0.534v31.134l-26.656-17.06
		c-0.107-0.106-0.32-0.106-0.533-0.106H45.316c-8.957,0-16.207-7.251-16.207-16.207v-13.542c0-0.533-0.427-0.959-0.96-0.959
		s-0.959,0.426-0.959,0.959v13.542c0,10.022,8.104,18.126,18.126,18.126h64.509l27.936,17.913
		C137.866,370.095,138.079,370.095,138.293,370.095z"/>
	<path d="M49.687,309.532h17.7c0.533,0,0.96-0.426,0.96-0.959c0-0.533-0.427-0.96-0.96-0.96h-17.7c-0.532,0-0.959,0.427-0.959,0.96
		C48.728,309.106,49.155,309.532,49.687,309.532z"/>
	<path d="M88.712,309.532h28.576c0.532,0,0.959-0.426,0.959-0.959c0-0.533-0.427-0.96-0.959-0.96H88.712
		c-0.533,0-0.96,0.427-0.96,0.96C87.752,309.106,88.179,309.532,88.712,309.532z"/>
	<path d="M49.687,327.765h67.494c0.533,0,0.96-0.426,0.96-0.959c0-0.534-0.427-0.96-0.96-0.96H49.687
		c-0.532,0-0.959,0.426-0.959,0.96C48.728,327.339,49.155,327.765,49.687,327.765z"/>
	<path d="M476.08,495.273c-0.746,0.106-1.173,0.532-0.746,3.306c0.532,3.092,1.492,3.412,2.133,3.198
		c0.639-0.213,1.065-1.279,0.533-3.412C477.36,496.233,477.039,495.167,476.08,495.273z"/>
	<path d="M456.355,500.711c-0.746,0.107-1.173,0.533-0.64,3.305c0.532,3.094,1.492,3.412,2.133,3.199
		c0.639-0.213,1.065-1.279,0.426-3.412C457.74,501.564,457.421,500.604,456.355,500.711z"/>
	<path d="M490.262,579.187c16.1,0,25.803-16.207,28.255-32.2c0-0.106,0-0.32,0-0.427l-10.77-35.399
		c-0.105-0.533-0.64-0.854-1.173-0.641c-0.533,0.107-0.746,0.641-0.639,1.174l10.662,35.187
		c-1.813,11.408-9.383,30.388-26.336,30.388c-8.637,0-11.836-17.167-11.836-17.273l-6.291-18.02
		c-0.213-0.532-0.746-0.747-1.279-0.64c-0.533,0.213-0.746,0.746-0.64,1.28l6.184,17.913
		C476.72,561.061,480.132,579.187,490.262,579.187z"/>
	<path d="M470.323,543.148c2.985,0,6.077-0.854,8.956-1.601c0.641-0.213,1.386-0.32,2.026-0.533
		c4.798-1.173,8.637-2.559,12.049-4.265c3.199-1.599,6.824-3.412,8.317-7.357c1.491-4.052,0.853-8.529,0.105-12.154
		c-0.533-2.453-1.065-4.585-1.812-6.611c-1.706-4.478-4.159-11.196-4.692-12.475c0.213-1.813,0.96-3.412,2.026-4.905
		c3.519-4.691,10.235-5.758,15.033-2.132c4.692,3.518,5.759,10.235,2.134,15.034c-2.986,4.052-8.317,5.438-12.902,3.411
		c-0.533-0.213-1.066,0-1.279,0.533c-0.214,0.533,0,1.066,0.533,1.279c5.438,2.346,11.622,0.747,15.247-4.051
		c4.158-5.545,2.986-13.542-2.559-17.7c-5.651-4.158-13.541-2.986-17.7,2.559c-1.279,1.813-2.132,3.838-2.452,6.078
		c0,0.106,0,0.319,0,0.426c0,0,2.879,7.678,4.798,12.688c0.64,1.92,1.279,3.946,1.706,6.291c0.64,3.306,1.28,7.464-0.106,11.089
		c-1.173,3.199-4.266,4.798-7.357,6.291c-3.305,1.6-6.93,2.986-11.622,4.159c-0.64,0.213-1.386,0.319-2.026,0.533
		c-5.438,1.491-11.089,2.984-15.46-1.173c-4.158-3.84-5.651-9.916-7.144-15.675c-0.32-1.279-0.64-2.559-0.96-3.839
		c-1.066-3.838-6.931-30.281-6.931-30.494c-0.106-0.532-0.64-0.853-1.173-0.747c-0.533,0.107-0.853,0.641-0.747,1.174
		c0.214,1.065,5.865,26.655,7.037,30.602c0.32,1.172,0.641,2.452,0.96,3.731c1.493,5.864,3.093,12.368,7.678,16.634
		C464.565,542.401,467.337,543.148,470.323,543.148z"/>
	<path d="M449.638,498.685c0.426,0,0.853-0.319,0.959-0.745c0-0.214,0.853-3.625,6.184-3.625c0.747,0,1.173-0.428,1.173-0.96
		c0-0.641-0.532-0.961-1.173-0.961c-6.93,0-7.996,5.118-7.996,5.226c-0.106,0.533,0.213,1.065,0.746,1.173
		C449.531,498.685,449.531,498.685,449.638,498.685z"/>
	<path d="M480.772,491.435c0.32,0,0.533-0.106,0.746-0.319c0.32-0.427,0.214-1.067-0.213-1.386
		c-7.145-5.652-12.155-0.534-12.262-0.428c-0.32,0.428-0.32,0.96,0,1.387c0.427,0.319,0.96,0.319,1.386,0
		c0.106-0.106,3.839-3.839,9.597,0.64C480.346,491.328,480.559,491.435,480.772,491.435z"/>
	<path d="M449.956,502.204c0.32,0,0.641-0.107,0.747-0.427c0.32-0.427,0.213-1.066-0.213-1.387
		c-0.106-0.105-10.663-7.464-12.155-18.339c-0.746-5.971,1.386-11.836,6.291-17.593c5.33-6.185,11.303-9.597,17.807-10.023
		c10.129-0.746,18.126,6.185,18.126,6.185c0.426,0.32,0.959,0.32,1.279,0c0.319-0.213,7.57-6.611,21.539-1.279
		c13.754,5.331,7.677,29.855,7.569,30.068c-0.106,0.533,0.213,1.065,0.746,1.173c0.533,0.106,1.067-0.214,1.173-0.747
		c0.32-1.066,6.504-26.443-8.743-32.414c-12.795-5.011-20.578-0.533-22.817,1.067c-2.132-1.706-9.596-6.824-18.979-6.186
		c-6.931,0.533-13.435,4.053-19.086,10.77c-5.331,6.185-7.569,12.582-6.717,19.192c1.492,11.729,12.475,19.3,12.901,19.619
		C449.531,502.097,449.743,502.204,449.956,502.204z"/>
	<path d="M478.213,530.246c3.306,0,6.397-1.493,8.529-4.052c2.134-2.56,2.879-6.29,2.026-9.81c-0.533-2.346-1.813-4.158-3.199-4.798
		s-2.665-0.533-3.838,0.32c-1.386,0.959-2.133,2.879-2.026,4.903c0.214,2.666,0,2.88-0.427,3.307
		c-0.426,0.533-0.639,0.746-3.198,1.065c-2.025,0.213-3.731,1.387-4.479,2.879c-0.533,1.174-0.426,2.56,0.427,3.732
		c0.96,1.386,3.092,2.346,5.544,2.452C477.893,530.246,478.107,530.246,478.213,530.246z M483.971,513.08
		c0.319,0,0.64,0.105,0.96,0.213c0.746,0.32,1.599,1.493,2.132,3.518c0.746,2.986,0.107,5.972-1.706,8.104
		c-2.666,3.199-6.078,3.412-7.464,3.305c-2.132-0.105-3.518-0.959-4.051-1.599c-0.428-0.64-0.534-1.28-0.214-1.919
		c0.427-0.854,1.6-1.601,2.879-1.706c2.985-0.32,3.625-0.747,4.478-1.706c0.747-0.96,1.067-1.6,0.854-4.692
		c-0.106-1.386,0.427-2.559,1.173-3.198C483.225,513.186,483.544,513.08,483.971,513.08z"/>
	<path d="M485.036,527.581c0.214,0,0.428-0.107,0.641-0.214c0.426-0.32,0.426-0.959,0-1.386c-5.012-5.438,1.173-11.409,1.493-11.622
		c0.426-0.32,0.426-0.96,0-1.387c-0.32-0.427-0.96-0.427-1.387,0c-2.772,2.56-6.61,8.956-1.493,14.395
		C484.504,527.474,484.823,527.581,485.036,527.581z"/>
	<path d="M510.947,505.722c0.427,0,0.854-0.319,0.96-0.746c0.106-0.532-0.214-1.065-0.747-1.173l-8.636-1.919l5.331-9.063
		c0.32-0.428,0.106-1.067-0.32-1.28s-1.065-0.106-1.279,0.32l-5.972,10.129c-0.105,0.319-0.213,0.64,0,0.853
		c0.107,0.32,0.428,0.534,0.641,0.534l9.916,2.132C510.84,505.722,510.947,505.722,510.947,505.722z"/>
	<path d="M478,467.977c0.319,0,0.745-0.213,0.853-0.532l3.199-6.824c0.213-0.533,0-1.066-0.427-1.28
		c-0.533-0.213-1.066,0.001-1.279,0.427l-3.199,6.824c-0.213,0.533,0,1.066,0.426,1.279
		C477.786,467.977,477.893,467.977,478,467.977z"/>
	<path d="M474.907,515.212c0.32,0,0.64-0.107,0.854-0.427c1.706-2.56,6.504-4.266,10.129-5.544c1.493-0.533,2.771-0.96,3.519-1.386
		c2.772-1.493,1.813-12.155,1.279-16.74c0-0.32-0.213-0.533-0.426-0.747c-10.663-6.824-14.075-18.552-14.075-18.659
		c-0.106-0.427-0.426-0.64-0.853-0.746s-0.746,0.213-0.959,0.533c-0.107,0.213-8.317,16.1-28.684,16.1c-0.213,0-0.426,0-0.639,0
		c-0.533,0-0.96,0.428-0.96,0.96c0,0.533,0.427,0.959,0.96,0.959c0.213,0,0.426,0,0.639,0c17.274,0,26.337-10.875,29.322-15.354
		c1.493,3.731,5.438,11.941,13.755,17.487c0.853,7.036,0.746,13.754-0.32,14.287c-0.64,0.319-1.813,0.746-3.198,1.279
		c-3.839,1.386-8.956,3.199-11.09,6.398c-0.319,0.426-0.213,1.065,0.32,1.386C474.588,515.212,474.694,515.212,474.907,515.212z"/>
	<path d="M454.969,522.889c0.213,0,0.533-0.106,0.746-0.319c2.346-2.452,6.504-2.452,6.504-2.452c0.533,0.105,0.96-0.427,0.96-0.96
		s-0.427-0.959-0.96-0.959c-0.32,0-5.118-0.001-7.997,2.984c-0.426,0.427-0.319,0.96,0,1.387
		C454.436,522.782,454.756,522.889,454.969,522.889z"/>
	<path d="M371.375,689.97c0.319,0,0.532-0.105,0.745-0.319l12.689-15.46c0.105-0.107,0.105-0.214,0.213-0.32
		c1.599-4.905,1.599-10.129-0.107-15.034l-37.744-109.078c-3.412-9.916-13.115-16.633-23.991-16.633H163.989
		c-2.771,0-5.544,0.427-8.103,1.28c-0.32,0.105-14.821,10.662-14.821,10.662c-0.427,0.319-0.532,0.96-0.213,1.386
		c0.319,0.427,0.959,0.533,1.386,0.213l14.395-10.449c2.346-0.746,4.905-1.173,7.356-1.173h159.085
		c10.129,0,18.979,6.186,22.179,15.354l37.744,109.077c1.6,4.479,1.6,9.17,0.107,13.648l-12.582,15.354
		c-0.32,0.427-0.32,1.066,0.107,1.387C370.948,689.864,371.161,689.97,371.375,689.97z"/>
	<path d="M194.484,697.221h159.191c8.423,0,16.207-3.944,20.898-10.556c4.479-6.291,5.651-14.074,3.092-21.325L339.92,556.263
		c-3.412-9.916-13.114-16.634-23.99-16.634H156.739c-8.424,0-16.206,3.945-20.898,10.556c-4.479,6.291-5.651,14.075-3.092,21.325
		l37.745,109.077C173.905,690.61,183.502,697.221,194.484,697.221z M315.93,541.655c10.129,0,18.979,6.184,22.178,15.354
		l37.745,109.077c2.346,6.611,1.28,13.755-2.879,19.513c-4.371,6.077-11.622,9.81-19.299,9.81H194.484
		c-10.129,0-18.979-6.185-22.178-15.354l-37.745-109.077c-2.346-6.61-1.28-13.755,2.879-19.512c4.371-6.078,11.622-9.81,19.299-9.81
		H315.93L315.93,541.655z"/>
	<path d="M18.979,638.151h137.44c0.533,0,0.959-0.428,0.959-0.96c0-0.533-0.426-0.96-0.959-0.96H18.979
		c-0.532,0-0.959,0.427-0.959,0.96C18.02,637.724,18.447,638.151,18.979,638.151z"/>
	<path d="M676.002,638.151h156.313c0.533,0,0.959-0.428,0.959-0.96c0-0.533-0.426-0.96-0.959-0.96H676.002
		c-0.533,0-0.959,0.427-0.959,0.96C675.043,637.724,675.469,638.151,676.002,638.151z"/>
	<path d="M486.53,638.151h16.953c0.533,0,0.96-0.428,0.96-0.96c0-0.533-0.427-0.96-0.96-0.96H486.53c-0.533,0-0.96,0.427-0.96,0.96
		C485.57,637.724,485.996,638.151,486.53,638.151z"/>
	<path fill="#1A1A1A" d="M827.837,517.451c-2.347,0-4.266-1.919-4.266-4.266c0-2.346,1.919-4.265,4.266-4.265
		c2.345,0,4.265,1.919,4.265,4.265C832.102,515.532,830.182,517.451,827.837,517.451z"/>
	<path fill="#1A1A1A" d="M795.103,517.664c-2.453,0-4.479-2.026-4.479-4.479c0-2.451,2.026-4.478,4.479-4.478
		c2.452,0,4.478,2.026,4.478,4.478C799.474,515.745,797.555,517.664,795.103,517.664z"/>
	<path fill="#1A1A1A" d="M762.262,517.345c-2.239,0-4.158-1.813-4.158-4.159c0-2.238,1.813-4.157,4.158-4.157
		c2.238,0,4.159,1.812,4.159,4.157C766.421,515.532,764.5,517.345,762.262,517.345z"/>
	<path fill="#1A1A1A" d="M827.837,550.505c-2.453,0-4.479-2.025-4.479-4.478c0-2.453,2.026-4.479,4.479-4.479
		c2.451,0,4.478,2.026,4.478,4.479C832.315,548.479,830.288,550.505,827.837,550.505z"/>
	<path fill="#1A1A1A" d="M795.103,550.718c-2.559,0-4.692-2.132-4.692-4.69c0-2.56,2.134-4.692,4.692-4.692s4.691,2.133,4.691,4.692
		C799.688,548.586,797.661,550.718,795.103,550.718z"/>
	<path fill="#1A1A1A" d="M762.262,550.398c-2.346,0-4.371-1.919-4.371-4.371c0-2.347,1.919-4.372,4.371-4.372
		c2.346,0,4.372,1.919,4.372,4.372C766.634,548.372,764.715,550.398,762.262,550.398z"/>
	<path fill="#1A1A1A" d="M827.837,582.919c-2.24,0-4.159-1.813-4.159-4.159c0-2.239,1.813-4.158,4.159-4.158
		c2.238,0,4.157,1.813,4.157,4.158C831.994,581.106,830.075,582.919,827.837,582.919z"/>
	<path fill="#1A1A1A" d="M795.103,583.132c-2.346,0-4.372-1.919-4.372-4.371c0-2.346,1.919-4.372,4.372-4.372
		c2.345,0,4.371,1.919,4.371,4.372C799.367,581.213,797.448,583.132,795.103,583.132z"/>
	<path fill="#1A1A1A" d="M762.262,582.812c-2.239,0-4.052-1.812-4.052-4.052c0-2.239,1.813-4.051,4.052-4.051
		c2.238,0,4.052,1.812,4.052,4.051C766.314,581,764.5,582.812,762.262,582.812z"/>
	<path d="M93.723,273.28c0.641,0,0.96-0.533,0.96-1.066c0,0-0.106-1.28-0.106-3.412c0-0.64,0-1.387,0-2.133
		c0-0.533-0.427-0.96-0.96-0.96s-0.959,0.427-0.959,0.96c0,0.853,0,1.599,0,2.239c0,2.239,0.106,3.519,0.106,3.519
		C92.764,272.853,93.191,273.28,93.723,273.28z M94.47,256.433c0.533,0,0.959-0.32,0.959-0.853c0.427-3.625,0.96-7.357,1.6-10.982
		c0.106-0.533-0.213-1.067-0.746-1.173c-0.533-0.107-1.066,0.213-1.173,0.746c-0.746,3.625-1.279,7.357-1.706,11.089
		C93.404,255.9,93.83,256.326,94.47,256.433C94.364,256.433,94.364,256.433,94.47,256.433z M98.628,234.575
		c0.427,0,0.853-0.32,0.96-0.746c1.065-3.626,2.239-7.144,3.518-10.45c0.214-0.533-0.105-1.066-0.533-1.279
		c-0.426-0.213-1.065,0.106-1.278,0.533c-1.28,3.412-2.56,7.037-3.519,10.662c-0.107,0.534,0.106,1.067,0.64,1.173
		C98.522,234.468,98.522,234.575,98.628,234.575z M324.46,219.221c0.213,0,0.426-0.107,0.532-0.213
		c0.427-0.32,0.533-0.96,0.213-1.386c-0.105-0.107-2.559-3.412-7.356-8.53c-0.32-0.427-0.96-0.427-1.386,0
		c-0.428,0.32-0.428,0.959,0,1.386c4.69,5.011,7.25,8.316,7.25,8.316C323.927,219.114,324.246,219.221,324.46,219.221z
		 M106.732,213.783c0.319,0,0.64-0.213,0.854-0.533c1.706-3.305,3.518-6.504,5.544-9.596c0.32-0.427,0.213-1.067-0.32-1.386
		c-0.426-0.32-1.065-0.214-1.386,0.32c-2.026,3.092-3.945,6.397-5.651,9.702c-0.213,0.427-0.106,1.067,0.426,1.28
		C106.412,213.677,106.518,213.783,106.732,213.783z M309.212,202.907c0.214,0,0.533-0.106,0.747-0.319
		c0.319-0.427,0.319-0.96,0-1.387c-2.772-2.559-5.546-5.011-8.425-7.357c-0.426-0.32-1.065-0.32-1.386,0.107
		c-0.32,0.426-0.32,1.066,0.107,1.386c2.879,2.346,5.65,4.798,8.316,7.251C308.785,202.801,308.998,202.907,309.212,202.907z
		 M118.887,195.23c0.32,0,0.533-0.106,0.746-0.319c2.346-2.773,4.905-5.438,7.571-7.997c0.426-0.32,0.426-0.96,0.105-1.386
		c-0.32-0.427-0.959-0.427-1.386-0.107c-2.772,2.559-5.331,5.331-7.784,8.103c-0.319,0.427-0.319,1.067,0.107,1.387
		C118.46,195.124,118.674,195.23,118.887,195.23z M292.046,188.726c0.32,0,0.64-0.106,0.746-0.426
		c0.319-0.427,0.214-1.066-0.213-1.386c-3.093-2.239-6.185-4.265-9.276-6.291c-0.427-0.32-1.067-0.107-1.386,0.32
		c-0.32,0.426-0.107,1.066,0.318,1.386c3.093,1.919,6.186,3.945,9.17,6.184C291.619,188.726,291.833,188.726,292.046,188.726z
		 M135.2,180.09c0.214,0,0.427-0.107,0.533-0.214c2.985-2.132,6.077-4.051,9.276-5.864c0.427-0.213,0.64-0.853,0.427-1.279
		c-0.214-0.427-0.853-0.64-1.279-0.427c-3.306,1.813-6.505,3.839-9.49,5.971c-0.426,0.32-0.533,0.96-0.213,1.386
		C134.561,179.983,134.881,180.09,135.2,180.09z M273.067,176.998c0.319,0,0.64-0.214,0.854-0.534
		c0.213-0.426,0.105-1.066-0.427-1.279c-3.306-1.813-6.718-3.412-10.023-4.905c-0.533-0.213-1.066,0-1.279,0.533s0,1.067,0.533,1.28
		c3.305,1.493,6.611,3.092,9.916,4.905C272.747,176.998,272.96,176.998,273.067,176.998z M154.606,169.321
		c0.107,0,0.213,0,0.32-0.107c3.305-1.386,6.824-2.559,10.449-3.625c0.533-0.107,0.747-0.747,0.64-1.173
		c-0.213-0.533-0.746-0.747-1.173-0.64c-3.625,1.066-7.25,2.346-10.556,3.732c-0.533,0.213-0.746,0.746-0.533,1.279
		C153.86,169.107,154.286,169.321,154.606,169.321z M252.701,167.934c0.427,0,0.746-0.213,0.96-0.639
		c0.213-0.533-0.107-1.067-0.533-1.28c-3.52-1.279-7.145-2.452-10.663-3.412c-0.533-0.106-1.066,0.213-1.173,0.64
		c-0.106,0.533,0.214,1.066,0.64,1.173c3.52,0.959,7.037,2.026,10.556,3.305C252.488,167.934,252.595,167.934,252.701,167.934z
		 M175.931,162.923c3.839-0.746,7.464-1.386,11.089-1.919c0.533-0.107,0.854-0.533,0.854-1.066c-0.106-0.534-0.533-0.96-1.066-0.853
		c-3.731,0.533-7.356,1.172-11.089,1.919c-0.533,0.106-0.853,0.64-0.746,1.173C175.078,162.603,175.505,162.923,175.931,162.923z
		 M231.27,162.07c0.426,0,0.854-0.32,0.959-0.746c0.107-0.533-0.213-1.067-0.746-1.173c-3.625-0.64-7.356-1.28-11.089-1.6
		c-0.533-0.106-0.96,0.32-1.065,0.853c-0.107,0.534,0.318,0.96,0.853,1.067c3.625,0.426,7.357,0.959,10.982,1.599
		C231.163,162.07,231.163,162.07,231.27,162.07z M198.003,159.938c3.625-0.214,7.463-0.214,11.089-0.214
		c0.533,0,0.959-0.426,0.959-0.959c0-0.533-0.426-0.96-0.959-0.96c-3.732-0.107-7.571,0-11.196,0.213
		c-0.533,0-0.96,0.533-0.96,1.067C197.043,159.511,197.47,159.938,198.003,159.938z"/>
	<path d="M542.721,447.185c12.049,0,21.857-9.809,21.857-21.751c0-12.049-9.809-21.751-21.857-21.751
		c-12.048,0-21.751,9.81-21.751,21.751C520.863,437.376,530.673,447.185,542.721,447.185z M542.721,405.495
		c10.982,0,19.832,8.956,19.832,19.832c0,10.981-8.956,19.832-19.832,19.832c-10.982,0-19.832-8.956-19.832-19.832
		C522.781,414.451,531.739,405.495,542.721,405.495z"/>
	<path d="M643.161,569.164h58.218c21.752,0,39.45-17.7,39.45-39.451V408.48c0-21.751-17.698-39.451-39.45-39.451h-59.604
		c-0.533,0-0.96,0.427-0.96,0.96c0,0.533,0.427,0.959,0.96,0.959h59.604c20.685,0,37.531,16.847,37.531,37.532v121.126
		c0,20.686-16.847,37.531-37.531,37.531h-58.218c-0.532,0-0.96,0.428-0.96,0.96C642.201,568.738,642.629,569.164,643.161,569.164z
		 M475.547,439.508c0.533,0,0.96-0.426,0.96-0.959v-29.962c0-20.685,16.847-37.532,37.531-37.532h65.041
		c0.533,0,0.96-0.427,0.96-0.96c0-0.533-0.427-0.959-0.96-0.959h-65.041c-21.751,0-39.45,17.699-39.45,39.451v29.962
		C474.588,438.975,475.014,439.508,475.547,439.508z"/>
	<path d="M467.123,520.117c0.428,0,0.746-0.214,0.854-0.641c0.213-0.532-0.107-1.065-0.533-1.279
		c-4.478-1.706-4.265-2.452-3.199-5.864c0.213-0.533,0.428-1.173,0.533-1.813c1.386-4.903-0.853-13.327-0.959-13.754
		c-0.106-0.532-0.64-0.747-1.173-0.64s-0.853,0.64-0.64,1.173c0,0.107,2.238,8.317,0.96,12.688c-0.214,0.64-0.428,1.173-0.533,1.706
		c-1.28,3.731-1.601,5.971,4.265,8.21C466.91,520.117,467.017,520.117,467.123,520.117z"/>
	<path d="M251.955,634.206c1.599,0,3.198-0.427,4.585-1.173c5.971-3.412,6.717-13.436,1.599-22.285
		c-2.452-4.265-5.864-7.57-9.596-9.489c-3.839-1.92-7.57-2.025-10.557-0.319c-2.984,1.706-4.69,5.011-5.011,9.275
		c-0.214,4.158,0.959,8.743,3.412,13.008C240.333,630.047,246.624,634.206,251.955,634.206z M256.433,611.708
		c4.585,7.89,4.159,16.74-0.853,19.619c-5.012,2.878-12.901-1.173-17.486-9.063c-2.239-3.945-3.412-8.104-3.092-11.941
		c0.213-3.626,1.599-6.398,4.051-7.784c2.346-1.386,5.438-1.28,8.744,0.426C251.102,604.67,254.194,607.763,256.433,611.708z"/>
	<path d="M695.941,372.228c0.427,0,0.854-0.32,0.96-0.747c0-0.213,0.96-4.265,1.6-11.195c0-0.533-0.319-0.96-0.854-1.066
		c-0.533,0-0.959,0.319-1.066,0.853c-0.64,6.717-1.599,10.875-1.599,10.875c-0.106,0.533,0.213,1.067,0.746,1.173
		C695.835,372.228,695.835,372.228,695.941,372.228z M698.181,350.05c0.533,0,0.959-0.427,0.959-0.96v-1.599
		c0-3.199-0.106-6.398-0.32-9.596c0-0.534-0.533-0.853-1.065-0.853c-0.533,0-0.96,0.533-0.854,1.066
		c0.213,3.092,0.32,6.291,0.32,9.489v1.6C697.221,349.623,697.647,350.05,698.181,350.05z M696.58,327.872
		c0.641-0.107,1.066-0.64,0.961-1.173c-0.641-3.732-1.387-7.464-2.347-10.982c-0.106-0.534-0.64-0.853-1.173-0.64
		c-0.533,0.106-0.853,0.64-0.64,1.173c0.96,3.518,1.706,7.144,2.346,10.769C695.621,327.445,696.048,327.872,696.58,327.872z
		 M690.823,306.334c0.107,0,0.214,0,0.32-0.107c0.533-0.213,0.747-0.746,0.533-1.28c-1.387-3.518-2.878-7.037-4.584-10.236
		c-0.214-0.426-0.854-0.639-1.28-0.426c-0.426,0.213-0.64,0.853-0.426,1.279c1.706,3.199,3.198,6.611,4.478,10.023
		C690.076,306.12,690.397,306.334,690.823,306.334z M680.481,286.608c0.213,0,0.426-0.107,0.533-0.213
		c0.426-0.32,0.533-0.853,0.213-1.386c-2.132-3.093-4.479-6.078-6.93-8.85c-0.32-0.427-0.96-0.427-1.388-0.107
		c-0.426,0.32-0.426,0.96-0.105,1.386c2.452,2.772,4.69,5.651,6.717,8.743C679.841,286.501,680.16,286.608,680.481,286.608z
		 M665.767,269.974c0.319,0,0.533-0.106,0.746-0.319c0.319-0.427,0.319-0.96-0.107-1.387c-1.278-1.172-2.665-2.345-4.051-3.412
		c-1.6-1.279-3.093-2.452-4.692-3.518c-0.426-0.32-1.065-0.213-1.386,0.213c-0.32,0.427-0.213,1.066,0.213,1.386
		c1.493,1.066,3.092,2.239,4.585,3.519c1.387,1.066,2.772,2.239,4.053,3.412C665.34,269.868,665.553,269.974,665.767,269.974z
		 M647.746,256.966c0.32,0,0.641-0.213,0.854-0.533c0.32-0.426,0.106-1.066-0.32-1.279c-3.199-1.92-6.61-3.626-10.022-5.118
		c-0.533-0.214-1.066,0-1.279,0.533c-0.213,0.533,0,1.066,0.533,1.279c3.305,1.493,6.61,3.199,9.809,5.012
		C647.427,256.86,647.64,256.966,647.746,256.966z M550.931,250.142c0.106,0,0.214,0,0.319-0.106
		c2.239-0.853,5.865-2.133,10.557-3.306c0.533-0.106,0.853-0.64,0.64-1.173c-0.106-0.533-0.64-0.853-1.173-0.639
		c-4.798,1.279-8.53,2.559-10.769,3.412c-0.533,0.213-0.747,0.746-0.533,1.279C550.077,249.929,550.505,250.142,550.931,250.142z
		 M627.488,247.903c0.427,0,0.747-0.213,0.96-0.64c0.213-0.533-0.106-1.066-0.64-1.173c-3.52-1.172-7.25-2.132-10.876-2.878
		c-0.533-0.107-1.066,0.213-1.173,0.746s0.214,1.066,0.747,1.173c3.625,0.746,7.144,1.706,10.662,2.879
		C627.275,247.796,627.382,247.903,627.488,247.903z M572.363,244.384c3.732-0.639,7.464-1.066,11.089-1.386
		c0.533,0,0.96-0.533,0.854-1.066c0-0.533-0.426-0.853-0.96-0.853c-3.838,0.32-7.57,0.746-11.195,1.386
		c-0.533,0.107-0.853,0.64-0.747,1.066C571.51,244.065,571.936,244.384,572.363,244.384z M605.737,243.212
		c0.533,0,0.959-0.32,0.959-0.853c0.107-0.534-0.32-0.96-0.853-1.067c-3.732-0.426-7.463-0.639-11.195-0.639
		c-0.533,0-0.96,0.426-0.96,0.959c0,0.533,0.427,0.96,0.96,0.96C598.273,242.572,601.898,242.785,605.737,243.212
		C605.63,243.212,605.63,243.212,605.737,243.212z"/>
	<path d="M368.603,345.998h133.174c21.112,0,38.279-17.166,38.279-38.278v-63.335c0-21.112-17.167-38.279-38.279-38.279H367.535
		c-21.11,0-38.277,17.167-38.277,38.279v63.335c0,15.141,8.637,28.362,22.604,34.44c0.427,0.213,1.067,0,1.28-0.533
		c0.213-0.534,0-1.067-0.533-1.28c-13.222-5.758-21.432-18.339-21.432-32.627v-63.335c0-20.046,16.313-36.253,36.253-36.253h134.347
		c20.046,0,36.253,16.314,36.253,36.253v63.335c0,20.045-16.313,36.252-36.253,36.252H368.709c-0.533,0-0.959,0.427-0.959,0.96
		C367.643,345.572,368.069,345.998,368.603,345.998z"/>
	<path d="M406.348,308.36h56.724c3.839,0,6.824-1.387,8.211-3.839s1.172-5.651-0.853-9.063l-28.256-48.301
		c-1.919-3.306-4.585-5.225-7.464-5.225c-2.88,0-5.545,1.813-7.465,5.225l-28.255,48.301c-1.919,3.305-2.238,6.504-0.853,9.063
		C399.524,306.973,402.403,308.36,406.348,308.36z M434.71,243.851c2.133,0,4.265,1.493,5.864,4.265l28.149,48.302
		c1.599,2.772,1.919,5.224,0.853,7.143c-1.066,1.813-3.412,2.879-6.505,2.879h-56.724c-3.199,0-5.438-1.066-6.504-2.879
		c-1.066-1.812-0.747-4.371,0.853-7.143l28.255-48.302C430.445,245.344,432.471,243.851,434.71,243.851z"/>
	<path d="M191.179,533.978c0.533,0,0.959-0.427,0.959-0.96v-40.624c0-0.532-0.426-0.959-0.959-0.959s-0.96,0.427-0.96,0.959v40.624
		C190.219,533.551,190.646,533.978,191.179,533.978z"/>
	<path d="M242.678,502.95c0.534,0,0.96-0.426,0.96-0.96v-9.597c0-0.532-0.426-0.959-0.96-0.959c-0.533,0-0.959,0.427-0.959,0.959
		v9.597C241.719,502.524,242.145,502.95,242.678,502.95z"/>
	<path d="M242.678,506.789c0.534,0,0.96-0.427,0.96-0.96v-3.838c0-0.534-0.426-0.96-0.96-0.96c-0.533,0-0.959,0.426-0.959,0.96
		v3.838C241.719,506.362,242.145,506.789,242.678,506.789z"/>
	<path d="M216.982,497.939c1.066,0,26.764-0.107,26.764-5.226s-25.591-5.224-26.764-5.224c-1.065,0-26.763,0.105-26.763,5.224
		S215.916,497.939,216.982,497.939z M241.719,492.714c-0.853,1.28-9.596,3.305-24.737,3.305c-15.461,0-24.204-2.132-24.844-3.411
		c0.533-1.066,9.383-3.198,24.844-3.198C232.123,489.409,240.866,491.435,241.719,492.714z"/>
	<path d="M213.357,520.757c0.427,0,0.746-0.214,0.959-0.64c0.214-0.533-0.105-1.066-0.639-1.28c-0.32-0.105-0.64-0.639-0.854-1.492
		c-0.745-3.093-0.426-8.316,3.627-9.81c1.599-0.641,3.518-0.426,5.33-0.213c4.692,0.426,9.171,0.64,13.541,0.426h0.641
		c2.666-0.106,5.438-0.213,7.997-1.172c0.533-0.214,0.746-0.747,0.533-1.28c-0.214-0.533-0.746-0.746-1.279-0.533
		c-2.24,0.854-4.905,0.959-7.357,1.066h-0.64c-4.372,0.213-8.743,0-13.008-0.426c-2.347-0.214-4.372-0.428-6.398,0.318
		c-4.69,1.706-6.078,7.358-4.905,12.049c0.107,0.533,0.533,2.347,2.026,2.88C213.143,520.757,213.25,520.757,213.357,520.757z"/>
	<path d="M212.077,534.724c0.319,0,0.532-0.105,0.745-0.426c0.32-0.427,0.215-1.065-0.213-1.386c-0.426-0.32-0.746-0.64-0.959-0.96
		c-1.706-2.346-2.346-5.331-1.492-7.997c0.426-1.279,1.173-2.346,2.025-2.772c0.641-0.427,0.959-0.319,1.919,0l0.32,0.107
		c1.919,0.639,4.052,1.066,6.717,1.386c7.464,0.854,14.714,0.64,23.671-0.747c0.533-0.105,0.854-0.533,0.854-1.065
		c-0.107-0.533-0.533-0.96-1.066-0.854c-8.743,1.386-15.887,1.6-23.138,0.746c-2.56-0.319-4.585-0.746-6.291-1.386l-0.32-0.106
		c-0.959-0.319-2.024-0.747-3.518,0.106c-1.813,0.96-2.56,2.879-2.879,3.945c-0.96,3.198-0.32,6.931,1.813,9.81
		c0.426,0.533,0.854,0.96,1.386,1.386C211.757,534.618,211.864,534.724,212.077,534.724z"/>
	<path d="M247.797,501.671c0.639-0.106,45.209-9.277,84.02-0.533c0.533,0.106,1.066-0.214,1.173-0.747
		c0.107-0.532-0.213-1.065-0.746-1.173c-39.237-8.743-84.127,0.427-84.554,0.533c-0.532,0.107-0.853,0.64-0.746,1.173
		C246.944,501.351,247.37,501.671,247.797,501.671z"/>
	<path d="M258.672,533.978c0.533,0,0.96-0.426,0.96-0.96c0-16.207-3.732-28.042-10.343-32.52c-2.026-1.386-6.077-2.773-6.291-2.773
		c-0.533-0.213-1.066,0.107-1.279,0.641s0.106,1.066,0.64,1.279c0,0,4.052,1.387,5.758,2.56c6.077,4.158,9.489,15.46,9.489,30.921
		C257.713,533.552,258.139,533.978,258.672,533.978z"/>
	<path d="M165.162,535.044c0.427,0,0.853-0.32,0.96-0.746c18.126-65.788,11.408-100.334,11.408-100.761
		c-0.106-0.533-0.64-0.854-1.173-0.746c-0.532,0.106-0.853,0.64-0.747,1.173c0.107,0.32,6.611,34.546-11.408,99.801
		c-0.106,0.533,0.214,1.066,0.64,1.174C165.055,535.044,165.055,535.044,165.162,535.044z"/>
	<path d="M222.313,330.537c0.746-0.106,1.28,0.214,1.493,2.986c0.213,3.092-0.533,3.625-1.28,3.625
		c-0.746,0-1.386-0.959-1.386-3.199C221.247,331.71,221.247,330.644,222.313,330.537z"/>
	<path d="M244.918,330.751c0.746-0.107,1.278,0.213,1.386,2.985c0.213,3.092-0.64,3.626-1.386,3.626
		c-0.747,0-1.388-1.067-1.28-3.199C243.745,331.924,243.851,330.857,244.918,330.751z"/>
	<path d="M200.028,381.184c0.534,0,0.96-0.426,0.96-0.959l1.387-27.829c0-0.534-0.427-0.96-0.959-1.067
		c-0.533,0-0.96,0.427-1.067,0.96l-1.386,27.829C199.069,380.651,199.495,381.078,200.028,381.184z"/>
	<path d="M235.002,375.96c5.224,0,10.555-0.64,13.86-5.758c3.412-5.225,3.412-12.049,3.412-18.02c0-1.279,0-2.665,0-3.838
		c0.106-4.052-0.532-30.282-0.532-31.455c0-0.533-0.428-1.066-0.96-0.959c-0.533,0-0.961,0.426-0.961,0.959
		c0,0.32,0.641,27.296,0.533,31.348c0,1.28,0,2.559,0,3.945c0,5.971,0,12.262-3.092,16.954c-3.305,5.011-9.169,4.904-14.714,4.798
		c-0.746,0-1.493,0-2.132,0c-4.799,0-8.638-0.427-12.263-1.173c-0.532-0.107-1.066,0.213-1.173,0.746
		c-0.106,0.533,0.213,1.066,0.746,1.173c3.732,0.853,7.784,1.28,12.689,1.28c0.746,0,1.386,0,2.132,0S234.149,375.96,235.002,375.96
		z"/>
	<path d="M196.617,354.315c2.665,0,5.437-0.853,7.676-2.666c0.427-0.32,0.534-0.959,0.214-1.386c-0.32-0.426-0.96-0.533-1.386-0.213
		c-3.946,3.092-9.49,2.985-13.329-0.213c-4.584-3.732-5.225-10.556-1.492-15.141c3.732-4.585,10.556-5.225,15.034-1.493
		c1.493,1.173,2.559,2.772,3.199,4.478c0.213,0.534,0.745,0.747,1.278,0.534c0.533-0.214,0.747-0.747,0.533-1.28
		c-0.746-2.026-2.132-3.838-3.838-5.331c-5.332-4.372-13.328-3.625-17.807,1.706c-4.479,5.438-3.625,13.435,1.705,17.806
		C190.859,353.355,193.738,354.315,196.617,354.315z"/>
	<path d="M250.782,327.232c0.106,0,0.319,0,0.426-0.107c0.534-0.213,0.747-0.853,0.427-1.279c0,0-2.346-4.905-9.276-3.092
		c-0.533,0.106-0.853,0.64-0.64,1.173c0.106,0.533,0.64,0.853,1.173,0.639c5.331-1.386,6.93,2.026,7.037,2.026
		C250.036,327.019,250.355,327.232,250.782,327.232z"/>
	<path d="M217.408,327.765c0.319,0,0.533-0.106,0.746-0.32c4.479-5.757,8.956-2.985,9.171-2.879c0.426,0.32,1.065,0.107,1.386-0.319
		c0.319-0.427,0.105-1.067-0.32-1.387c-0.106,0-6.184-3.838-11.729,3.412c-0.32,0.427-0.213,1.067,0.213,1.387
		C216.982,327.659,217.195,327.765,217.408,327.765z"/>
	<path d="M237.561,380.971c0.533,0,0.959-0.426,0.959-0.959V375c0-0.533-0.426-0.959-0.959-0.959c-0.534,0-0.96,0.426-0.96,0.959
		v5.012C236.601,380.545,237.027,380.971,237.561,380.971z"/>
	<path d="M188.3,333.736c0.426,0,0.746-0.213,0.853-0.64c0.214-0.533,0-1.066-0.532-1.279c0,0-2.986-2.026-4.692-17.593
		c-1.066-9.703,4.692-15.141,8.85-16.421c7.997-2.452,18.126-1.386,18.233-1.386c0.426,0.107,0.746-0.106,0.96-0.533
		c5.438-10.875,12.581-14.821,17.593-16.313c5.651-1.6,11.516-0.96,16.526,2.026c5.332,3.092,8.531,7.037,9.703,11.728
		c1.92,7.571-2.346,14.608-2.346,14.608c-0.214,0.32-0.214,0.853,0.106,1.173s0.747,0.426,1.066,0.213
		c1.387-0.64,2.452,1.279,2.772,1.919c2.132,4.265,1.492,12.795-6.718,17.38c-0.426,0.213-0.639,0.853-0.32,1.28
		c0.214,0.426,0.854,0.639,1.28,0.32c9.276-5.225,9.916-14.928,7.464-19.939c-0.853-1.706-1.92-2.666-3.199-2.986
		c1.279-2.665,3.306-8.317,1.813-14.501c-1.28-5.224-4.905-9.596-10.663-13.008c-5.544-3.306-11.942-4.052-18.126-2.239
		c-5.225,1.492-12.688,5.651-18.446,16.74c-2.453-0.213-11.089-0.747-18.34,1.493c-5.971,1.812-11.302,8.743-10.236,18.446
		c1.92,16.847,5.226,18.979,5.865,19.192C187.98,333.736,188.193,333.736,188.3,333.736z"/>
	<path d="M234.788,350.903c0.64,0,6.291-0.107,8.21-2.133c0.534-0.533,0.747-1.173,0.747-1.919c-0.107-1.066-0.641-2.452-1.28-4.265
		c-1.492-3.945-3.519-9.383-2.239-14.501c0.107-0.533-0.213-1.066-0.746-1.173c-0.533-0.106-1.065,0.214-1.173,0.747
		c-1.386,5.757,0.854,11.728,2.346,15.674c0.64,1.599,1.174,2.985,1.174,3.731c0,0.107-0.001,0.214-0.215,0.427
		c-0.959,1.066-4.478,1.493-6.717,1.493c-0.533,0-0.96,0.426-0.96,0.959C233.722,350.476,234.149,350.903,234.788,350.903z"/>
	<path d="M192.885,348.77c0.106,0,0.319,0,0.426-0.106l9.063-4.479c0.319-0.106,0.427-0.426,0.533-0.746c0-0.32,0-0.64-0.214-0.853
		l-8.21-8.423c-0.319-0.427-0.96-0.427-1.386,0c-0.427,0.426-0.427,0.959,0,1.386l7.357,7.464l-7.891,3.945
		c-0.532,0.213-0.64,0.853-0.427,1.279C192.138,348.557,192.565,348.77,192.885,348.77z"/>
	<path d="M214.423,303.241c0.105,0,0.32,0,0.426-0.106c0.533-0.213,0.64-0.853,0.427-1.28l-3.198-6.61
		c-0.214-0.534-0.854-0.64-1.279-0.427c-0.533,0.213-0.64,0.853-0.427,1.28l3.198,6.61
		C213.676,303.028,213.996,303.241,214.423,303.241z"/>
	<path d="M121.659,634.205c0.319,0,0.532-0.106,0.746-0.426c0.106-0.107,10.022-13.009,21.858-33.907
		c0.213-0.426,0.106-1.066-0.32-1.279c-0.427-0.319-1.065-0.106-1.279,0.32c-10.557,18.766-19.619,31.027-21.325,33.267
		c-17.806-1.173-39.451-17.167-42.97-19.938c3.519-12.582,6.931-25.058,10.449-37.64c10.77-39.345,19.939-74.743,27.829-108.011
		c0.746-3.199,1.387-6.397,2.132-9.703c2.56-12.582,5.332-25.482,13.115-35.719c12.476-16.314,35.826-28.149,56.938-28.789
		c0.533,0,0.96-0.427,0.96-0.96c0-0.533-0.534-0.959-0.96-0.959c-21.646,0.639-45.637,12.901-58.432,29.641
		c-7.996,10.556-10.769,23.671-13.434,36.466c-0.64,3.198-1.386,6.504-2.133,9.596c-7.891,33.267-17.061,68.667-27.829,108.012
		c-3.519,12.795-7.037,25.483-10.556,38.278c-0.107,0.426,0,0.746,0.319,1.066C77.517,614.267,101.4,633.246,121.659,634.205
		C121.552,634.205,121.552,634.205,121.659,634.205z"/>
	<path d="M346.211,551.038c0.214,0,0.427-0.107,0.64-0.213c21.858-18.34,10.663-46.382-1.599-68.88
		c-1.813-3.199-3.732-7.57-5.972-12.476c-12.795-28.256-36.679-80.822-95.322-80.822c-0.533,0-0.96,0.427-0.96,0.96
		c0,0.533,0.427,0.959,0.96,0.959c57.363,0,80.074,49.901,93.51,79.756c2.238,5.011,4.265,9.275,6.078,12.582
		c11.835,21.751,22.816,49.047,2.025,66.427c-0.427,0.32-0.427,0.96-0.106,1.386C345.678,550.825,345.891,551.038,346.211,551.038z"
		/>
	<path d="M205.466,335.016c0.106,0,0.214,0,0.32-0.107c9.17-3.518,11.729-19.725,12.368-25.483
		c4.052,3.625,16.101,12.368,32.947,8.423c0.533-0.106,0.854-0.64,0.746-1.173c-0.105-0.533-0.64-0.853-1.173-0.746
		c-19.832,4.585-32.521-9.17-32.627-9.276c-0.213-0.32-0.64-0.427-1.066-0.32c-0.319,0.106-0.64,0.426-0.64,0.853
		c0,0.213-1.493,21.964-11.302,25.803c-0.533,0.213-0.747,0.746-0.533,1.279C204.72,334.803,205.04,335.016,205.466,335.016z"/>
	<path d="M140.745,636.658c0.64,0,0.96-0.533,0.96-1.066c-1.067-17.38-1.388-24.418-1.493-27.296
		c0.105-0.214,0.213-0.427,0.213-0.64c-0.106-1.601-0.107-2.347-1.173-2.347c-0.426,0-0.64,0-0.746,1.174
		c-0.107,0.106,0,0.213,0,0.426c-0.107,2.666,0.32,9.703,1.386,28.789C139.785,636.338,140.212,636.658,140.745,636.658z"/>
	<path d="M211.437,442.387c0.32,0,0.641-0.213,0.854-0.426l17.06-28.576l15.248,21.112c0.213,0.32,0.64,0.426,1.066,0.32
		c0.427-0.107,0.64-0.533,0.64-0.96V391.42c0-0.213-0.107-0.426-0.213-0.533l-7.784-11.515c-0.213-0.32-0.533-0.427-0.96-0.427
		c-0.426,0.107-0.639,0.32-0.746,0.747l-7.89,29.855l-28.469-30.602c-0.428-0.426-1.067-0.426-1.387,0l-11.089,11.836
		c-0.214,0.32-0.32,0.746-0.214,1.066l22.925,49.9C210.691,442.174,211.011,442.387,211.437,442.387
		C211.437,442.387,211.331,442.387,211.437,442.387z M228.071,411.679l-16.526,27.616l-21.858-47.661l9.916-10.663L228.071,411.679z
		 M244.385,391.847v39.13l-14.075-19.512l7.677-29.109L244.385,391.847z"/>
	<path d="M232.229,490.262c0.747-0.106,1.066-0.64,0.96-1.173c-5.545-25.482-17.272-53.632-17.38-53.846
		c-0.213-0.533-0.746-0.746-1.279-0.533s-0.746,0.746-0.533,1.28c0.106,0.318,11.729,28.255,17.273,53.524
		C231.376,489.942,231.803,490.262,232.229,490.262z"/>
	<path d="M247.796,501.671c0.534,0,0.96-0.427,0.96-0.96c1.813-40.198-3.732-68.56-3.838-68.88
		c-0.107-0.533-0.534-0.854-1.173-0.746c-0.533,0.107-0.854,0.64-0.747,1.173c0.106,0.32,5.545,28.362,3.839,68.347
		C246.837,501.137,247.157,501.564,247.796,501.671z"/>
	<path d="M227.538,442.387c0.105,0,11.089-1.065,11.089-1.065c0.426,0,0.853-0.428,0.853-0.854l1.173-14.288
		c0-0.532-0.319-0.959-0.853-1.065c-0.533,0-0.96,0.319-1.067,0.853l-1.065,13.541l-9.703,0.96l-8.53-11.729
		c-0.32-0.426-0.959-0.533-1.386-0.213c-0.426,0.319-0.533,0.96-0.213,1.386l8.85,12.262
		C226.898,442.281,227.218,442.387,227.538,442.387z"/>
	<path d="M225.725,466.164c0.533,0,0.96-0.426,0.96-0.854l1.813-23.67c0-0.532-0.319-0.96-0.854-1.066
		c-0.533,0-0.959,0.319-1.065,0.853l-1.813,23.671C224.659,465.631,225.085,466.058,225.725,466.164
		C225.725,466.164,225.619,466.164,225.725,466.164z"/>
	<path d="M246.41,457.101c0.106,0,0.319,0,0.427-0.105c0.533-0.214,0.64-0.854,0.426-1.28l-7.89-15.78
		c-0.213-0.532-0.854-0.64-1.279-0.427c-0.534,0.213-0.64,0.854-0.427,1.28l7.89,15.78
		C245.664,456.995,246.09,457.101,246.41,457.101z"/>
	<path d="M289.913,496.233c0.533,0,0.96-0.428,0.96-0.96c0-38.918-14.714-70.054-14.821-70.372
		c-0.213-0.534-0.853-0.641-1.279-0.428c-0.533,0.213-0.64,0.854-0.427,1.28c0.107,0.319,14.714,31.027,14.714,69.52
		C288.954,495.806,289.38,496.233,289.913,496.233z"/>
	<path d="M229.03,361.245c0.961,0,2.134-0.213,3.307-0.639c0.533-0.213,0.746-0.747,0.64-1.173c-0.214-0.533-0.747-0.853-1.173-0.64
		c-2.239,0.746-4.052,0.64-5.225-0.32c-2.133-1.706-2.026-6.184-1.813-7.783c0.106-0.533-0.32-1.067-0.853-1.067
		c-0.534-0.106-1.067,0.32-1.067,0.853c0,0.32-0.853,6.718,2.559,9.49C226.365,360.819,227.644,361.245,229.03,361.245z"/>
</g>
</svg>
