<?xml version="1.0" encoding="utf-8"?>
<!-- Generator: Adobe Illustrator 16.0.0, SVG Export Plug-In . SVG Version: 6.00 Build 0)  -->
<!DOCTYPE svg PUBLIC "-//W3C//DTD SVG 1.1//EN" "http://www.w3.org/Graphics/SVG/1.1/DTD/svg11.dtd">
<svg version="1.1" id="Layer_1" xmlns="http://www.w3.org/2000/svg" xmlns:xlink="http://www.w3.org/1999/xlink" x="0px" y="0px"
	 width="32px" height="32px" viewBox="0 0 32 32" enable-background="new 0 0 32 32" xml:space="preserve">
<path fill="#070A44" d="M27.761,2H4.393C3.116,2,2,2.919,2,4.181v23.42C2,28.869,3.116,30,4.393,30h23.361
	C29.037,30,30,28.861,30,27.601V4.181C30.008,2.919,29.037,2,27.761,2z M10.679,25.34H6.668V12.868h4.011V25.34z M8.813,10.971
	H8.784c-1.284,0-2.115-0.956-2.115-2.152c0-1.218,0.853-2.151,2.166-2.151s2.116,0.926,2.145,2.151
	C10.978,10.016,10.147,10.971,8.813,10.971z M25.34,25.34h-4.012v-6.82c0-1.633-0.584-2.75-2.035-2.75
	c-1.108,0-1.765,0.75-2.057,1.48c-0.109,0.264-0.139,0.621-0.139,0.985v7.104h-4.011V12.868h4.011v1.735
	c0.584-0.831,1.496-2.027,3.617-2.027c2.633,0,4.625,1.736,4.625,5.477V25.34z"/>
</svg>
